…
## Load the tidyverse

```r
library(tidyverse)
```

## Mammals Sleep
1. For this assignment, we are going to use built-in data on mammal sleep patterns. From which publication are these data taken from? Since the data are built-in you can use the help function in R.

```r
msleep
```

```
## # A tibble: 83 × 11
##    name         genus vore  order conse…¹ sleep…² sleep…³ sleep…⁴ awake  brainwt
##    <chr>        <chr> <chr> <chr> <chr>     <dbl>   <dbl>   <dbl> <dbl>    <dbl>
##  1 Cheetah      Acin… carni Carn… lc         12.1    NA    NA      11.9 NA      
##  2 Owl monkey   Aotus omni  Prim… <NA>       17       1.8  NA       7    0.0155 
##  3 Mountain be… Aplo… herbi Rode… nt         14.4     2.4  NA       9.6 NA      
##  4 Greater sho… Blar… omni  Sori… lc         14.9     2.3   0.133   9.1  0.00029
##  5 Cow          Bos   herbi Arti… domest…     4       0.7   0.667  20    0.423  
##  6 Three-toed … Brad… herbi Pilo… <NA>       14.4     2.2   0.767   9.6 NA      
##  7 Northern fu… Call… carni Carn… vu          8.7     1.4   0.383  15.3 NA      
##  8 Vesper mouse Calo… <NA>  Rode… <NA>        7      NA    NA      17   NA      
##  9 Dog          Canis carni Carn… domest…    10.1     2.9   0.333  13.9  0.07   
## 10 Roe deer     Capr… herbi Arti… lc          3      NA    NA      21    0.0982 
## # … with 73 more rows, 1 more variable: bodywt <dbl>, and abbreviated variable
## #   names ¹​conservation, ²​sleep_total, ³​sleep_rem, ⁴​sleep_cycle
```
…
7. We are interested in two groups; small and large mammals. Let's define small as less than or equal to 1kg body weight and large as greater than or equal to 200kg body weight. Make two new dataframes (large and small) based on these parameters.

```r
small_animal <- filter(msleep, bodywt <= 1)
small_animal
```

```
## # A tibble: 36 × 11
##    name  genus vore  order conse…¹ sleep…² sleep…³ sleep…⁴ awake  brainwt bodywt
##    <chr> <chr> <chr> <chr> <chr>     <dbl>   <dbl>   <dbl> <dbl>    <dbl>  <dbl>
##  1 Owl … Aotus omni  Prim… <NA>       17       1.8  NA       7    0.0155   0.48 
##  2 Grea… Blar… omni  Sori… lc         14.9     2.3   0.133   9.1  0.00029  0.019
##  3 Vesp… Calo… <NA>  Rode… <NA>        7      NA    NA      17   NA        0.045
##  4 Guin… Cavis herbi Rode… domest…     9.4     0.8   0.217  14.6  0.0055   0.728
##  5 Chin… Chin… herbi Rode… domest…    12.5     1.5   0.117  11.5  0.0064   0.42 
##  6 Star… Cond… omni  Sori… lc         10.3     2.2  NA      13.7  0.001    0.06 
##  7 Afri… Cric… omni  Rode… <NA>        8.3     2    NA      15.7  0.0066   1    
##  8 Less… Cryp… omni  Sori… lc          9.1     1.4   0.15   14.9  0.00014  0.005
##  9 Big … Epte… inse… Chir… lc         19.7     3.9   0.117   4.3  0.0003   0.023
## 10 Euro… Erin… omni  Erin… lc         10.1     3.5   0.283  13.9  0.0035   0.77 
## # … with 26 more rows, and abbreviated variable names ¹​conservation,
## #   ²​sleep_total, ³​sleep_rem, ⁴​sleep_cycle
```
…
