…
```r
deserts
```

```
## # A tibble: 34,786 × 13
##    record…¹ month   day  year plot_id speci…² sex   hindf…³ weight genus species
##       <dbl> <dbl> <dbl> <dbl>   <dbl> <chr>   <chr>   <dbl>  <dbl> <chr> <chr>  
##  1        1     7    16  1977       2 NL      M          32     NA Neot… albigu…
##  2        2     7    16  1977       3 NL      M          33     NA Neot… albigu…
##  3        3     7    16  1977       2 DM      F          37     NA Dipo… merria…
##  4        4     7    16  1977       7 DM      M          36     NA Dipo… merria…
##  5        5     7    16  1977       3 DM      M          35     NA Dipo… merria…
##  6        6     7    16  1977       1 PF      M          14     NA Pero… flavus 
##  7        7     7    16  1977       2 PE      F          NA     NA Pero… eremic…
##  8        8     7    16  1977       1 DM      M          37     NA Dipo… merria…
##  9        9     7    16  1977       1 DM      F          34     NA Dipo… merria…
## 10       10     7    16  1977       6 PF      F          20     NA Pero… flavus 
## # … with 34,776 more rows, 2 more variables: taxa <chr>, plot_type <chr>, and
## #   abbreviated variable names ¹​record_id, ²​species_id, ³​hindfoot_length
```
…
```r
deserts %>% 
  count(species) %>% 
  arrange(n)
```

```
## # A tibble: 40 × 2
##    species          n
##    <chr>        <int>
##  1 clarki           1
##  2 scutalatus       1
##  3 tereticaudus     1
##  4 tigris           1
##  5 uniparens        1
##  6 viridis          1
##  7 leucophrys       2
##  8 savannarum       2
##  9 fuscus           5
## 10 undulatus        5
## # … with 30 more rows
```
…
